tidymodels - Preprocess your data with recipes
…
Create features

Now we can start adding steps onto our recipe using the pipe operator. Perhaps it is reasonable for the date of the flight to have an effect on the likelihood of a late arrival. A little bit of feature engineering might go a long way to improving our model. How should the date be encoded into the model? The date column has an R date object so including that column “as is” will mean that the model will convert it to a numeric format equal to the number of days after a reference date:

flight_data %>% 
  distinct(date) %>% 
  mutate(numeric_date = as.numeric(date)) 
#> # A tibble: 364 × 2
#>    date       numeric_date
#>    <date>            <dbl>
#>  1 2013-01-01        15706
#>  2 2013-01-02        15707
#>  3 2013-01-03        15708
#>  4 2013-01-04        15709
#>  5 2013-01-05        15710
#>  6 2013-01-06        15711
#>  7 2013-01-07        15712
#>  8 2013-01-08        15713
#>  9 2013-01-09        15714
#> 10 2013-01-10        15715
#> # ℹ 354 more rows
…
Now, there is a single function that can be used to prepare the recipe and train the model from the resulting predictors:

flights_fit <- 
  flights_wflow %>% 
  fit(data = train_data)

This object has the finalized recipe and fitted model objects inside. You may want to extract the model or recipe objects from the workflow. To do this, you can use the helper functions extract_fit_parsnip() and extract_recipe(). For example, here we pull the fitted model object then use the broom::tidy() function to get a tidy tibble of model coefficients:

flights_fit %>% 
  extract_fit_parsnip() %>% 
  tidy()
#> # A tibble: 158 × 5
#>    term                         estimate std.error statistic  p.value
#>    <chr>                           <dbl>     <dbl>     <dbl>    <dbl>
#>  1 (Intercept)                   7.26    2.73           2.66 7.75e- 3
#>  2 dep_time                     -0.00166 0.0000141   -118.   0       
#>  3 air_time                     -0.0440  0.000563     -78.2  0       
#>  4 distance                      0.00508 0.00150        3.38 7.13e- 4
#>  5 date_USChristmasDay           1.35    0.178          7.59 3.32e-14
#>  6 date_USColumbusDay            0.721   0.170          4.23 2.33e- 5
#>  7 date_USCPulaskisBirthday      0.804   0.139          5.78 7.38e- 9
#>  8 date_USDecorationMemorialDay  0.582   0.117          4.96 7.22e- 7
#>  9 date_USElectionDay            0.945   0.190          4.97 6.73e- 7
#> 10 date_USGoodFriday             1.24    0.167          7.44 1.04e-13
#> # ℹ 148 more rows
…
Our goal was to predict whether a plane arrives more than 30 minutes late. We have just:

Built the model (lr_mod),

Created a preprocessing recipe (flights_rec),

Bundled the model and recipe (flights_wflow), and

Trained our workflow using a single call to fit().

The next step is to use the trained workflow (flights_fit) to predict with the unseen test data, which we will do with a single call to predict(). The predict() method applies the recipe to the new data, then passes them to the fitted model.

predict(flights_fit, test_data)
#> # A tibble: 81,455 × 1
#>    .pred_class
#>    <fct>      
#>  1 on_time    
#>  2 on_time    
#>  3 on_time    
#>  4 on_time    
#>  5 on_time    
#>  6 on_time    
#>  7 on_time    
#>  8 on_time    
#>  9 on_time    
#> 10 on_time    
#> # ℹ 81,445 more rows

Because our outcome variable here is a factor, the output from predict() returns the predicted class: late versus on_time. But, let’s say we want the predicted class probabilities for each flight instead. To return those, we can specify type = "prob" when we use predict() or use augment() with the model plus test data to save them together:

flights_aug <- 
  augment(flights_fit, test_data)

# The data look like: 
flights_aug %>%
  select(arr_delay, time_hour, flight, .pred_class, .pred_on_time)
#> # A tibble: 81,455 × 5
#>    arr_delay time_hour           flight .pred_class .pred_on_time
#>    <fct>     <dttm>               <int> <fct>               <dbl>
#>  1 on_time   2013-01-01 05:00:00   1545 on_time             0.945
#>  2 on_time   2013-01-01 05:00:00   1714 on_time             0.949
#>  3 on_time   2013-01-01 06:00:00    507 on_time             0.964
#>  4 on_time   2013-01-01 06:00:00   5708 on_time             0.961
#>  5 on_time   2013-01-01 06:00:00     71 on_time             0.962
#>  6 on_time   2013-01-01 06:00:00    194 on_time             0.975
#>  7 on_time   2013-01-01 06:00:00   1124 on_time             0.963
#>  8 on_time   2013-01-01 05:00:00   1806 on_time             0.981
#>  9 on_time   2013-01-01 06:00:00   1187 on_time             0.935
#> 10 on_time   2013-01-01 06:00:00   4650 on_time             0.931
#> # ℹ 81,445 more rows
…
