tidymodels - A predictive modeling case study
…
rf_best <- 
  rf_res %>% 
  select_best(metric = "roc_auc")
rf_best
#> # A tibble: 1 × 3
#>    mtry min_n .config              
#>   <int> <int> <chr>                
#> 1     8     7 Preprocessor1_Model13

To calculate the data needed to plot the ROC curve, we use collect_predictions(). This is only possible after tuning with control_grid(save_pred = TRUE). In the output, you can see the two columns that hold our class probabilities for predicting hotel stays including and not including children.

rf_res %>% 
  collect_predictions()
#> # A tibble: 187,500 × 8
#>    id         .pred_children .pred_none  .row  mtry min_n children .config      
#>    <chr>               <dbl>      <dbl> <int> <int> <int> <fct>    <chr>        
#>  1 validation        0.152        0.848    13    12     7 none     Preprocessor…
#>  2 validation        0.0302       0.970    20    12     7 none     Preprocessor…
#>  3 validation        0.513        0.487    22    12     7 children Preprocessor…
#>  4 validation        0.0103       0.990    23    12     7 none     Preprocessor…
#>  5 validation        0.0111       0.989    31    12     7 none     Preprocessor…
#>  6 validation        0            1        38    12     7 none     Preprocessor…
#>  7 validation        0            1        39    12     7 none     Preprocessor…
#>  8 validation        0.00325      0.997    50    12     7 none     Preprocessor…
#>  9 validation        0.0241       0.976    54    12     7 none     Preprocessor…
#> 10 validation        0.0441       0.956    57    12     7 children Preprocessor…
#> # ℹ 187,490 more rows
…
