…
Survival Probability Prediction

This type of censored regression model can make static predictions via the predicted event time using predict(object, type = "time"). It can also make dynamic predictions regarding the probability of survival for each data point at specific times. The syntax for this is

predict(object, new_data, type = "survival", eval_time = numeric())

where eval_time is a vector of time points at which we want the corresponding estimates of the survivor function. Alternately, we can use the augment() function to get both types of prediction and automatically attach them to the data being predicted.

The largest event time in the training set is 18.1 so we will use a set of evaluation times between zero and 18. From there, we use augment():

time_points <- seq(0, 18, by = 0.25)

val_pred <- augment(bag_tree_fit, sim_val, eval_time = time_points)
val_pred
#> # A tibble: 250 × 5
#>    .pred             .pred_time event_time    X1      X2
#>    <list>                 <dbl>     <Surv> <dbl>   <dbl>
#>  1 <tibble [73 × 5]>       9.48      5.78      1 -0.630 
#>  2 <tibble [73 × 5]>       6.67      3.26+     0  0.792 
#>  3 <tibble [73 × 5]>       3.82      2.34      1  0.811 
#>  4 <tibble [73 × 5]>       8.53      7.45+     1 -0.271 
#>  5 <tibble [73 × 5]>       7.07      8.05      0  0.315 
#>  6 <tibble [73 × 5]>       7.24     14.09      0  0.264 
#>  7 <tibble [73 × 5]>      10.6       5.23+     0 -0.532 
#>  8 <tibble [73 × 5]>      12.3       3.18+     0 -1.41  
#>  9 <tibble [73 × 5]>      11.0       1.86      1 -0.851 
#> 10 <tibble [73 × 5]>       6.03      7.20      1 -0.0937
#> # ℹ 240 more rows

The .pred column contains the dynamic predictions in a list column. Since length(time_points) is 73, each data frame in the list column has that many rows:

val_pred$.pred[[1]]
#> # A tibble: 73 × 5
#>    .eval_time .pred_survival .weight_time .pred_censored .weight_censored
#>         <dbl>          <dbl>        <dbl>          <dbl>            <dbl>
#>  1       0             1            0              1                 1   
#>  2       0.25          0.996        0.250          1                 1   
#>  3       0.5           0.993        0.500          0.997             1.00
#>  4       0.75          0.993        0.750          0.995             1.01
#>  5       1             0.989        1.00           0.992             1.01
#>  6       1.25          0.984        1.25           0.985             1.02
#>  7       1.5           0.975        1.50           0.978             1.02
#>  8       1.75          0.974        1.75           0.969             1.03
#>  9       2             0.964        2.00           0.956             1.05
#> 10       2.25          0.949        2.25           0.944             1.06
#> # ℹ 63 more rows
…
