tidymodels - Modeling time series with tidy resampling
…
Suppose that we need predictions for one year ahead and our model should use the most recent data from the last 20 years. To set up this resampling scheme:

roll_rs <- rolling_origin(
  drinks, 
  initial = 12 * 20, 
  assess = 12,
  cumulative = FALSE
  )

nrow(roll_rs)
#> [1] 58

roll_rs
#> # Rolling origin forecast resampling 
#> # A tibble: 58 × 2
#>    splits           id     
#>    <list>           <chr>  
#>  1 <split [240/12]> Slice01
#>  2 <split [240/12]> Slice02
#>  3 <split [240/12]> Slice03
#>  4 <split [240/12]> Slice04
#>  5 <split [240/12]> Slice05
#>  6 <split [240/12]> Slice06
#>  7 <split [240/12]> Slice07
#>  8 <split [240/12]> Slice08
#>  9 <split [240/12]> Slice09
#> 10 <split [240/12]> Slice10
#> # ℹ 48 more rows
…
