…
There are two nice properties of using a workflow(). First, the model and recipe are bundled so that you can more easily keep track of them. Second, there is a single function that can be used to prepare the recipe and create the model from the resulting predictors:

flights_fit <- fit(flights_wflow, data = train_data)

This object has the finalized recipe and model objects inside. To extract those objects, use the functions pull_workflow_fit() and pull_workflow_recipe(). For example, use the broom::tidy() function to get data on the model coefficients:

flights_fit %>% 
  pull_workflow_fit() %>% 
  tidy()

#> # A tibble: 157 x 5
#>    term                         estimate std.error statistic  p.value
#>    <chr>                           <dbl>     <dbl>     <dbl>    <dbl>
#>  1 (Intercept)                   4.80    2.73           1.76 7.90e- 2
#>  2 dep_time                     -0.00166 0.0000141   -118.   0.      
#>  3 air_time                     -0.0441  0.000562     -78.5  0.      
#>  4 distance                      0.00648 0.00151        4.30 1.71e- 5
#>  5 date_USChristmasDay           1.26    0.181          6.94 3.82e-12
#>  6 date_USColumbusDay            0.661   0.173          3.83 1.27e- 4
#>  7 date_USCPulaskisBirthday      0.732   0.132          5.56 2.68e- 8
#>  8 date_USDecorationMemorialDay  0.262   0.111          2.36 1.82e- 2
#>  9 date_USElectionDay            0.861   0.187          4.61 4.02e- 6
#> 10 date_USGoodFriday             1.22    0.162          7.51 5.91e-14
#> # … with 147 more rows
…
