…
The embeddings are obtained using the tidy() method:

hood_coef <- 
  tidy(tf_embed, number = 4) %>%
  dplyr::select(-terms, -id)  %>%
  dplyr::rename(Neighborhood = level) %>%
  # Make names smaller
  rename_at(vars(contains("emb")), .funs = ~ gsub("Neighborhood_", "", .x, fixed = TRUE))
hood_coef
#> # A tibble: 29 x 6
#>     embed_1 embed_2   embed_3  embed_4  embed_5 Neighborhood      
#>       <dbl>   <dbl>     <dbl>    <dbl>    <dbl> <chr>             
#>  1 -0.0241  -0.0447  0.0273   -0.0126   0.0431  ..new             
#>  2  0.00632 -0.0186 -0.00878  -0.0685   0.0342  North_Ames        
#>  3 -0.00943 -0.0869  0.0487   -0.0124  -0.0487  College_Creek     
#>  4 -0.0308  -0.0184  0.0235   -0.0167   0.107   Old_Town          
#>  5  0.0227   0.0334  0.0103    0.00289  0.0283  Edwards           
#>  6 -0.0164  -0.0913 -0.000519 -0.0262  -0.0912  Somerset          
#>  7 -0.0605  -0.0617  0.0273   -0.0665  -0.157   Northridge_Heights
#>  8 -0.0426  -0.0635  0.0112   -0.00597 -0.00594 Gilbert           
#>  9  0.00176  0.0129  0.0454   -0.0551   0.0118  Sawyer            
#> 10 -0.00914 -0.0193 -0.0295   -0.0337  -0.0121  Northwest_Ames    
#> # … with 19 more rows

hood_coef <- 
  hood_coef %>% 
  inner_join(means, by = "Neighborhood")
hood_coef
#> # A tibble: 28 x 10
#>     embed_1 embed_2  embed_3  embed_4  embed_5 Neighborhood  mean     n   lon
#>       <dbl>   <dbl>    <dbl>    <dbl>    <dbl> <chr>        <dbl> <int> <dbl>
#>  1  0.00632 -0.0186 -8.78e-3 -0.0685   0.0342  North_Ames    5.15   443 -93.6
#>  2 -0.00943 -0.0869  4.87e-2 -0.0124  -0.0487  College_Cre…  5.29   267 -93.7
#>  3 -0.0308  -0.0184  2.35e-2 -0.0167   0.107   Old_Town      5.07   239 -93.6
#>  4  0.0227   0.0334  1.03e-2  0.00289  0.0283  Edwards       5.09   194 -93.7
#>  5 -0.0164  -0.0913 -5.19e-4 -0.0262  -0.0912  Somerset      5.35   182 -93.6
#>  6 -0.0605  -0.0617  2.73e-2 -0.0665  -0.157   Northridge_…  5.49   166 -93.7
#>  7 -0.0426  -0.0635  1.12e-2 -0.00597 -0.00594 Gilbert       5.27   165 -93.6
#>  8  0.00176  0.0129  4.54e-2 -0.0551   0.0118  Sawyer        5.13   151 -93.7
#>  9 -0.00914 -0.0193 -2.95e-2 -0.0337  -0.0121  Northwest_A…  5.27   131 -93.6
#> 10  0.00656 -0.0176  2.98e-2 -0.0670  -0.0185  Sawyer_West   5.25   125 -93.7
#> # … with 18 more rows, and 1 more variable: lat <dbl>
…
