tidymodels - Correlation and regression fundamentals with tidy data principles
…
This article only requires the tidymodels package.

While the tidymodels package broom is useful for summarizing the result of a single analysis in a consistent format, it is really designed for high-throughput applications, where you must combine results from multiple analyses. These could be subgroups of data, analyses using different models, bootstrap replicates, permutations, and so on. In particular, it plays well with the nest()/unnest() functions from tidyr and the map() function in purrr.

Correlation analysis

Let’s demonstrate this with a simple data set, the built-in Orange. We start by coercing Orange to a tibble. This gives a nicer print method that will be especially useful later on when we start working with list-columns.

library(tidymodels)

data(Orange)

Orange <- as_tibble(Orange)
Orange
#> # A tibble: 35 × 3
#>    Tree    age circumference
#>    <ord> <dbl>         <dbl>
#>  1 1       118            30
#>  2 1       484            58
#>  3 1       664            87
#>  4 1      1004           115
#>  5 1      1231           120
#>  6 1      1372           142
#>  7 1      1582           145
#>  8 2       118            33
#>  9 2       484            69
#> 10 2       664           111
#> # ℹ 25 more rows
…
You can just as easily use multiple predictors in the regressions, as shown here on the mtcars dataset. We nest the data into automatic vs. manual cars (the am column), then perform the regression within each nested tibble.

data(mtcars)
mtcars <- as_tibble(mtcars)  # to play nicely with list-cols
mtcars
#> # A tibble: 32 × 11
#>      mpg   cyl  disp    hp  drat    wt  qsec    vs    am  gear  carb
#>    <dbl> <dbl> <dbl> <dbl> <dbl> <dbl> <dbl> <dbl> <dbl> <dbl> <dbl>
#>  1  21       6  160    110  3.9   2.62  16.5     0     1     4     4
#>  2  21       6  160    110  3.9   2.88  17.0     0     1     4     4
#>  3  22.8     4  108     93  3.85  2.32  18.6     1     1     4     1
#>  4  21.4     6  258    110  3.08  3.22  19.4     1     0     3     1
#>  5  18.7     8  360    175  3.15  3.44  17.0     0     0     3     2
#>  6  18.1     6  225    105  2.76  3.46  20.2     1     0     3     1
#>  7  14.3     8  360    245  3.21  3.57  15.8     0     0     3     4
#>  8  24.4     4  147.    62  3.69  3.19  20       1     0     4     2
#>  9  22.8     4  141.    95  3.92  3.15  22.9     1     0     4     2
#> 10  19.2     6  168.   123  3.92  3.44  18.3     1     0     4     4
#> # ℹ 22 more rows
…
regressions %>% 
  select(glanced) %>% 
  unnest(glanced)
#> # A tibble: 2 × 12
#>   r.squared adj.r.squared sigma statistic  p.value    df    logLik   AIC   BIC
#>       <dbl>         <dbl> <dbl>     <dbl>    <dbl> <dbl>     <dbl> <dbl> <dbl>
#> 1     0.833         0.778 0.291     15.0  0.000759     3  -0.00580  10.0  12.8
#> 2     0.625         0.550 0.522      8.32 0.00170      3 -12.4      34.7  39.4
#> # ℹ 3 more variables: deviance <dbl>, df.residual <int>, nobs <int>

regressions %>% 
  select(augmented) %>% 
  unnest(augmented)
#> # A tibble: 32 × 10
#>       wt   mpg  qsec  gear .fitted  .resid  .hat .sigma  .cooksd .std.resid
#>    <dbl> <dbl> <dbl> <dbl>   <dbl>   <dbl> <dbl>  <dbl>    <dbl>      <dbl>
#>  1  2.62  21    16.5     4    2.73 -0.107  0.517  0.304 0.0744      -0.527 
#>  2  2.88  21    17.0     4    2.75  0.126  0.273  0.304 0.0243       0.509 
#>  3  2.32  22.8  18.6     4    2.63 -0.310  0.312  0.279 0.188       -1.29  
#>  4  2.2   32.4  19.5     4    1.70  0.505  0.223  0.233 0.278        1.97  
#>  5  1.62  30.4  18.5     4    1.86 -0.244  0.269  0.292 0.0889      -0.982 
#>  6  1.84  33.9  19.9     4    1.56  0.274  0.286  0.286 0.125        1.12  
#>  7  1.94  27.3  18.9     4    2.19 -0.253  0.151  0.293 0.0394      -0.942 
#>  8  2.14  26    16.7     5    2.21 -0.0683 0.277  0.307 0.00732     -0.276 
#>  9  1.51  30.4  16.9     5    1.77 -0.259  0.430  0.284 0.263       -1.18  
#> 10  3.17  15.8  14.5     5    3.15  0.0193 0.292  0.308 0.000644     0.0789
#> # ℹ 22 more rows
…
