tidymodels - Regression models two ways
…
To get the predictions for this specific value of lambda (aka penalty):

# First, get the processed version of the test set predictors:
test_normalized <- bake(norm_recipe, new_data = ames_test, all_predictors())

test_results <- 
  test_results %>%
  rename(`random forest` = .pred) %>%
  bind_cols(
    predict(glmn_fit, new_data = test_normalized) %>%
      rename(glmnet = .pred)
  )
test_results
#> # A tibble: 733 × 3
#>    Sale_Price `random forest` glmnet
#>         <dbl>           <dbl>  <dbl>
#>  1       5.39            5.25   5.16
#>  2       5.28            5.29   5.27
#>  3       5.23            5.26   5.24
#>  4       5.21            5.30   5.24
#>  5       5.60            5.51   5.24
#>  6       5.32            5.29   5.26
#>  7       5.17            5.14   5.18
#>  8       5.06            5.13   5.17
#>  9       4.98            5.01   5.18
#> 10       5.11            5.14   5.19
#> # ℹ 723 more rows
…
