tidymodels - Tune model parameters
…
To use code in this article, you will need to install the following packages: rpart, rpart.plot, tidymodels, and vip.

library(tidymodels)  # for the tune package, along with the rest of tidymodels

# Helper packages
library(rpart.plot)  # for visualizing a decision tree
library(vip)         # for variable importance plots

The cell image data, revisited

In our previous Evaluate your model with resampling article, we introduced a data set of images of cells that were labeled by experts as well-segmented (WS) or poorly segmented (PS). We trained a random forest model to predict which images are segmented well vs. poorly, so that a biologist could filter out poorly segmented cell images in their analysis. We used resampling to estimate the performance of our model on this data.

data(cells, package = "modeldata")
cells
#> # A tibble: 2,019 × 58
#>    case  class angle_ch_1 area_ch_1 avg_inten_ch_1 avg_inten_ch_2 avg_inten_ch_3
#>    <fct> <fct>      <dbl>     <int>          <dbl>          <dbl>          <dbl>
#>  1 Test  PS        143.         185           15.7           4.95           9.55
#>  2 Train PS        134.         819           31.9         207.            69.9 
#>  3 Train WS        107.         431           28.0         116.            63.9 
#>  4 Train PS         69.2        298           19.5         102.            28.2 
#>  5 Test  PS          2.89       285           24.3         112.            20.5 
#>  6 Test  WS         40.7        172          326.          654.           129.  
#>  7 Test  WS        174.         177          260.          596.           124.  
#>  8 Test  PS        180.         251           18.3           5.73          17.2 
#>  9 Test  WS         18.9        495           16.1          89.5           13.7 
#> 10 Test  WS        153.         384           17.7          89.9           20.4 
#> # ℹ 2,009 more rows
#> # ℹ 51 more variables: avg_inten_ch_4 <dbl>, convex_hull_area_ratio_ch_1 <dbl>,
#> #   convex_hull_perim_ratio_ch_1 <dbl>, diff_inten_density_ch_1 <dbl>,
#> #   diff_inten_density_ch_3 <dbl>, diff_inten_density_ch_4 <dbl>,
#> #   entropy_inten_ch_1 <dbl>, entropy_inten_ch_3 <dbl>,
#> #   entropy_inten_ch_4 <dbl>, eq_circ_diam_ch_1 <dbl>,
#> #   eq_ellipse_lwr_ch_1 <dbl>, eq_ellipse_oblate_vol_ch_1 <dbl>, …
…
Think of tune() here as a placeholder. After the tuning process, we will select a single numeric value for each of these hyperparameters. For now, we specify our parsnip model object and identify the hyperparameters we will tune().

We can’t train this specification on a single data set (such as the entire training set) and learn what the hyperparameter values should be, but we can train many models using resampled data and see which models turn out best. We can create a regular grid of values to try using some convenience functions for each hyperparameter:

tree_grid <- grid_regular(cost_complexity(),
                          tree_depth(),
                          levels = 5)

The function grid_regular() is from the dials package. It chooses sensible values to try for each hyperparameter; here, we asked for 5 of each. Since we have two to tune, grid_regular() returns 5 \(\times\) 5 = 25 different possible tuning combinations to try in a tidy tibble format.

tree_grid
#> # A tibble: 25 × 2
#>    cost_complexity tree_depth
#>              <dbl>      <int>
#>  1    0.0000000001          1
#>  2    0.0000000178          1
#>  3    0.00000316            1
#>  4    0.000562              1
#>  5    0.1                   1
#>  6    0.0000000001          4
#>  7    0.0000000178          4
#>  8    0.00000316            4
#>  9    0.000562              4
#> 10    0.1                   4
#> # ℹ 15 more rows
…
Once we have our tuning results, we can both explore them through visualization and then select the best result. The function collect_metrics() gives us a tidy tibble with all the results. We had 25 candidate models and two metrics, accuracy and roc_auc, and we get a row for each .metric and model.

tree_res %>% 
  collect_metrics()
#> # A tibble: 50 × 8
#>    cost_complexity tree_depth .metric  .estimator  mean     n std_err .config   
#>              <dbl>      <int> <chr>    <chr>      <dbl> <int>   <dbl> <chr>     
#>  1    0.0000000001          1 accuracy binary     0.732    10  0.0148 Preproces…
#>  2    0.0000000001          1 roc_auc  binary     0.777    10  0.0107 Preproces…
#>  3    0.0000000178          1 accuracy binary     0.732    10  0.0148 Preproces…
#>  4    0.0000000178          1 roc_auc  binary     0.777    10  0.0107 Preproces…
#>  5    0.00000316            1 accuracy binary     0.732    10  0.0148 Preproces…
#>  6    0.00000316            1 roc_auc  binary     0.777    10  0.0107 Preproces…
#>  7    0.000562              1 accuracy binary     0.732    10  0.0148 Preproces…
#>  8    0.000562              1 roc_auc  binary     0.777    10  0.0107 Preproces…
#>  9    0.1                   1 accuracy binary     0.732    10  0.0148 Preproces…
#> 10    0.1                   1 roc_auc  binary     0.777    10  0.0107 Preproces…
#> # ℹ 40 more rows
…
