…
Predicting image segmentation, but better

Tuning hyperparameters

Exploring results

Some model parameters cannot be learned directly from a data set during model training; these kinds of parameters are called hyperparameters. Some examples of hyperparameters include the number of predictors that are sampled at splits in a tree-based model (we call this mtry in tidymodels) or the learning rate in a boosted tree model (we call this learn_rate). Instead of learning these kinds of hyperparameters during model training, we can estimate the best values for these values by training many models on resampled data sets and exploring how well all these models perform. This process is called tuning.

Predicting image segmentation, but better

In our article on resampling, we introduced a data set of images of cells that were labeled by experts as well-segmented (WS) or poorly segmented (PS). We trained a random forest model to predict which images are segmented well vs. poorly, so that a biologist could filter out poorly segmented cell images in their analysis. We used resampling to estimate the performance of our model on this data.

data(cells, package = "modeldata")
cells
#> # A tibble: 2,019 x 58
#>    case  class angle_ch_1 area_ch_1 avg_inten_ch_1 avg_inten_ch_2 avg_inten_ch_3
#>    <fct> <fct>      <dbl>     <int>          <dbl>          <dbl>          <dbl>
#>  1 Test  PS        143.         185           15.7           4.95           9.55
#>  2 Train PS        134.         819           31.9         207.            69.9 
#>  3 Train WS        107.         431           28.0         116.            63.9 
#>  4 Train PS         69.2        298           19.5         102.            28.2 
#>  5 Test  PS          2.89       285           24.3         112.            20.5 
#>  6 Test  WS         40.7        172          326.          654.           129.  
#>  7 Test  WS        174.         177          260.          596.           124.  
#>  8 Test  PS        180.         251           18.3           5.73          17.2 
#>  9 Test  WS         18.9        495           16.1          89.5           13.7 
#> 10 Test  WS        153.         384           17.7          89.9           20.4 
#> # … with 2,009 more rows, and 51 more variables: avg_inten_ch_4 <dbl>,
#> #   convex_hull_area_ratio_ch_1 <dbl>, convex_hull_perim_ratio_ch_1 <dbl>,
#> #   diff_inten_density_ch_1 <dbl>, diff_inten_density_ch_3 <dbl>,
#> #   diff_inten_density_ch_4 <dbl>, entropy_inten_ch_1 <dbl>,
#> #   entropy_inten_ch_3 <dbl>, entropy_inten_ch_4 <dbl>,
#> #   eq_circ_diam_ch_1 <dbl>, eq_ellipse_lwr_ch_1 <dbl>,
#> #   eq_ellipse_oblate_vol_ch_1 <dbl>, eq_ellipse_prolate_vol_ch_1 <dbl>,
#> #   eq_sphere_area_ch_1 <dbl>, eq_sphere_vol_ch_1 <dbl>,
#> #   fiber_align_2_ch_3 <dbl>, fiber_align_2_ch_4 <dbl>,
…
