…
Using these colors, the cells in an image can be segmented so that we know which pixels belong to which cell. If this is done well, the cell can be measured in different ways that are important to the biology. Sometimes the shape of the cell matters and different mathematical tools are used to summarize characteristics like the size or “oblongness” of the cell.

The bottom panel shows some segmentation results. Cells 1 and 5 are fairly well segmented. However, cells 2 to 4 are bunched up together because the segmentation was not very good. The consequence of bad segmentation is data contamination; when the biologist analyzes the shape or size of these cells, the data are inaccurate and could lead to the wrong conclusion.

A cell-based experiment might involve millions of cells so it is unfeasible to visually assessment all. Instead, a subsample can be created and the cells can be manually labeled by experts as either poorly segmented (PS) or well-segmented (WS). If we can predict these labels accurately, the larger data set can be improved by filtering out the cells most likely to be poorly segmented.

An example data set called cells is contained in the modeldata package. It has labeled data for 2019 cells. Each also has a total of 56 predictors based on automated image analysis measurements. For example, avg_inten_ch_1 is the mean intensity of the data contained in the nucleus, area_ch_1 is the total size of the cell, and so on (some predictors are fairly arcane in nature).

data(cells, package = "modeldata")
cells

#> # A tibble: 2,019 x 58
#>    case  class angle_ch_1 area_ch_1 avg_inten_ch_1 avg_inten_ch_2 avg_inten_ch_3 avg_inten_ch_4
#>    <fct> <fct>      <dbl>     <int>          <dbl>          <dbl>          <dbl>          <dbl>
#>  1 Test  PS        143.         185           15.7           4.95           9.55           2.21
#>  2 Train PS        134.         819           31.9         207.            69.9          164.  
#>  3 Train WS        107.         431           28.0         116.            63.9          107.  
#>  4 Train PS         69.2        298           19.5         102.            28.2           31.0 
#>  5 Test  PS          2.89       285           24.3         112.            20.5           40.6 
#>  6 Test  WS         40.7        172          326.          654.           129.           347.  
#>  7 Test  WS        174.         177          260.          596.           124.           273.  
#>  8 Test  PS        180.         251           18.3           5.73          17.2            1.55
#>  9 Test  WS         18.9        495           16.1          89.5           13.7           51.4 
#> 10 Test  WS        153.         384           17.7          89.9           20.4           63.1 
#> # … with 2,009 more rows, and 50 more variables: convex_hull_area_ratio_ch_1 <dbl>,
#> #   convex_hull_perim_ratio_ch_1 <dbl>, diff_inten_density_ch_1 <dbl>,
#> #   diff_inten_density_ch_3 <dbl>, diff_inten_density_ch_4 <dbl>, entropy_inten_ch_1 <dbl>,
#> #   entropy_inten_ch_3 <dbl>, entropy_inten_ch_4 <dbl>, eq_circ_diam_ch_1 <dbl>,
#> #   eq_ellipse_lwr_ch_1 <dbl>, eq_ellipse_oblate_vol_ch_1 <dbl>, eq_ellipse_prolate_vol_ch_1 <dbl>,
#> #   eq_sphere_area_ch_1 <dbl>, eq_sphere_vol_ch_1 <dbl>, fiber_align_2_ch_3 <dbl>,
#> #   fiber_align_2_ch_4 <dbl>, fiber_length_ch_1 <dbl>, fiber_width_ch_1 <dbl>,
#> #   inten_cooc_asm_ch_3 <dbl>, inten_cooc_asm_ch_4 <dbl>, inten_cooc_contrast_ch_3 <dbl>,
#> #   inten_cooc_contrast_ch_4 <dbl>, inten_cooc_entropy_ch_3 <dbl>, inten_cooc_entropy_ch_4 <dbl>,
…
