…
Survival Probability Prediction

This censored regression model can make static predictions via the predicted event time using predict(object, type = "time"). It can also create dynamic predictions regarding the probability of survival for each data point at specific times. The syntax for this is

predict(object, new_data, type = "survival", eval_time = numeric())

where eval_time is a vector of time points at which we want the corresponding survivor function estimates. Alternatively, we can use the augment() function to get both types of prediction and automatically attach them to the data.

The largest event time in the training set is 18.1 so we will use a set of evaluation times between zero and 18. From there, we use augment():

time_points <- seq(0, 18, by = 0.25)

val_pred <- augment(bag_tree_fit, sim_val, eval_time = time_points)
val_pred
#> # A tibble: 250 × 5
#>    .pred             .pred_time event_time    X1      X2
#>    <list>                 <dbl>     <Surv> <dbl>   <dbl>
#>  1 <tibble [73 × 5]>       9.48      5.78      1 -0.630 
#>  2 <tibble [73 × 5]>       6.67      3.26+     0  0.792 
#>  3 <tibble [73 × 5]>       3.82      2.34      1  0.811 
#>  4 <tibble [73 × 5]>       8.53      7.45+     1 -0.271 
#>  5 <tibble [73 × 5]>       7.07      8.05      0  0.315 
#>  6 <tibble [73 × 5]>       7.24     14.09      0  0.264 
#>  7 <tibble [73 × 5]>      10.6       5.23+     0 -0.532 
#>  8 <tibble [73 × 5]>      12.3       3.18+     0 -1.41  
#>  9 <tibble [73 × 5]>      11.0       1.86      1 -0.851 
#> 10 <tibble [73 × 5]>       6.03      7.20      1 -0.0937
#> # ℹ 240 more rows

The .pred column contains the dynamic predictions in a list column. Since length(time_points) is 73, each data frame in the list column has that many rows:

val_pred$.pred[[1]]
#> # A tibble: 73 × 5
#>    .eval_time .pred_survival .weight_time .pred_censored .weight_censored
#>         <dbl>          <dbl>        <dbl>          <dbl>            <dbl>
#>  1       0             1            0              1                 1   
#>  2       0.25          0.996        0.250          1                 1   
#>  3       0.5           0.993        0.500          0.997             1.00
#>  4       0.75          0.993        0.750          0.995             1.01
#>  5       1             0.989        1.00           0.992             1.01
#>  6       1.25          0.984        1.25           0.985             1.02
#>  7       1.5           0.975        1.50           0.978             1.02
#>  8       1.75          0.974        1.75           0.969             1.03
#>  9       2             0.964        2.00           0.956             1.05
#> 10       2.25          0.949        2.25           0.944             1.06
#> # ℹ 63 more rows
…
How do we compute this using the yardstick package? The function brier_survival() follows the same convention as the other metric functions. The main arguments are:

data: the data frame with the predictions (structured as the output produced by augment(), as shown above).

truth: the name of the column with the Surv object.

...: the name of the column with the dynamic predictions. Within tidymodels, this column is always called .pred. In other words, .pred should be passed without an argument name.

Since the evaluation times and the case weights are within the .pred column, there is no need to specify these. Here are the results of our validation set:

brier_scores <-
  val_pred %>% 
  brier_survival(truth = event_time, .pred)
brier_scores
#> # A tibble: 73 × 4
#>    .metric        .estimator .eval_time .estimate
#>    <chr>          <chr>           <dbl>     <dbl>
#>  1 brier_survival standard         0    0        
#>  2 brier_survival standard         0.25 0.0000270
#>  3 brier_survival standard         0.5  0.00418  
#>  4 brier_survival standard         0.75 0.0121   
#>  5 brier_survival standard         1    0.0243   
#>  6 brier_survival standard         1.25 0.0431   
#>  7 brier_survival standard         1.5  0.0521   
#>  8 brier_survival standard         1.75 0.0677   
#>  9 brier_survival standard         2    0.0857   
#> 10 brier_survival standard         2.25 0.100    
#> # ℹ 63 more rows
…
Let’s take an evaluation time of 5.00 as an example.

data_at_5 <- 
  binary_encoding %>% 
  filter(.eval_time == 5.00 & !is.na(.weight_censored)) %>% 
  select(.eval_time, .pred_survival, .weight_censored, obs_class, pred_class, event_time)
data_at_5
#> # A tibble: 205 × 6
#>    .eval_time .pred_survival .weight_censored obs_class pred_class event_time
#>         <dbl>          <dbl>            <dbl> <fct>     <fct>          <Surv>
#>  1          5         0.835              1.28 non-event non-event       5.78 
#>  2          5         0.327              1.06 event     event           2.34 
#>  3          5         0.812              1.28 non-event non-event       7.45+
#>  4          5         0.751              1.28 non-event non-event       8.05 
#>  5          5         0.755              1.28 non-event non-event      14.09 
#>  6          5         0.854              1.28 non-event non-event       5.23+
#>  7          5         0.868              1.04 event     non-event       1.86 
#>  8          5         0.664              1.28 non-event non-event       7.20 
#>  9          5         0.0436             1.19 event     event           3.95 
#> 10          5         0.375              1.28 non-event event           5.18+
#> # ℹ 195 more rows
…
The area under this curve is 0.838.

Since this is a dynamic metric, we compute the AUC for each evaluation time. The syntax is the same as the Brier code shown above:

roc_scores <-
  val_pred %>% 
  roc_auc_survival(truth = event_time, .pred)
roc_scores
#> # A tibble: 73 × 4
#>    .metric          .estimator .eval_time .estimate
#>    <chr>            <chr>           <dbl>     <dbl>
#>  1 roc_auc_survival standard         0       0.5   
#>  2 roc_auc_survival standard         0.25    0.5   
#>  3 roc_auc_survival standard         0.5     0.0948
#>  4 roc_auc_survival standard         0.75    0.851 
#>  5 roc_auc_survival standard         1       0.697 
#>  6 roc_auc_survival standard         1.25    0.697 
#>  7 roc_auc_survival standard         1.5     0.719 
#>  8 roc_auc_survival standard         1.75    0.757 
#>  9 roc_auc_survival standard         2       0.745 
#> 10 roc_auc_survival standard         2.25    0.765 
#> # ℹ 63 more rows
…
