…
This article only requires that you have the tidymodels package installed.

While the tidymodels package broom is useful for summarizing the result of a single analysis in a consistent format, it is really designed for high-throughput applications, where you must combine results from multiple analyses. These could be subgroups of data, analyses using different models, bootstrap replicates, permutations, and so on. In particular, it plays well with the nest()/unnest() functions in tidyr and the map() function in purrr.

Correlation analysis

Let’s try this on a simple data set, the built-in Orange. We start by coercing Orange to a tibble. This gives a nicer print method that will especially useful later on when we start working with list-columns.

library(tidymodels)

data(Orange)

Orange <- as_tibble(Orange)
Orange
#> # A tibble: 35 x 3
#>    Tree    age circumference
#>    <ord> <dbl>         <dbl>
#>  1 1       118            30
#>  2 1       484            58
#>  3 1       664            87
#>  4 1      1004           115
#>  5 1      1231           120
#>  6 1      1372           142
#>  7 1      1582           145
#>  8 2       118            33
#>  9 2       484            69
#> 10 2       664           111
#> # … with 25 more rows
…
You can just as easily use multiple predictors in the regressions, as shown here on the mtcars dataset. We nest the data into automatic and manual cars (the am column), then perform the regression within each nested tibble.

data(mtcars)
mtcars <- as_tibble(mtcars)  # to play nicely with list-cols
mtcars
#> # A tibble: 32 x 11
#>      mpg   cyl  disp    hp  drat    wt  qsec    vs    am  gear  carb
#>    <dbl> <dbl> <dbl> <dbl> <dbl> <dbl> <dbl> <dbl> <dbl> <dbl> <dbl>
#>  1  21       6  160    110  3.9   2.62  16.5     0     1     4     4
#>  2  21       6  160    110  3.9   2.88  17.0     0     1     4     4
#>  3  22.8     4  108     93  3.85  2.32  18.6     1     1     4     1
#>  4  21.4     6  258    110  3.08  3.22  19.4     1     0     3     1
#>  5  18.7     8  360    175  3.15  3.44  17.0     0     0     3     2
#>  6  18.1     6  225    105  2.76  3.46  20.2     1     0     3     1
#>  7  14.3     8  360    245  3.21  3.57  15.8     0     0     3     4
#>  8  24.4     4  147.    62  3.69  3.19  20       1     0     4     2
#>  9  22.8     4  141.    95  3.92  3.15  22.9     1     0     4     2
#> 10  19.2     6  168.   123  3.92  3.44  18.3     1     0     4     4
#> # … with 22 more rows
…
regressions %>% 
  select(glanced) %>% 
  unnest(glanced)
#> # A tibble: 2 x 11
#>   r.squared adj.r.squared sigma statistic p.value    df   logLik   AIC   BIC
#>       <dbl>         <dbl> <dbl>     <dbl>   <dbl> <int>    <dbl> <dbl> <dbl>
#> 1     0.833         0.778 0.291     15.0  7.59e-4     4 -5.80e-3  10.0  12.8
#> 2     0.625         0.550 0.522      8.32 1.70e-3     4 -1.24e+1  34.7  39.4
#> # … with 2 more variables: deviance <dbl>, df.residual <int>

regressions %>% 
  select(augmented) %>% 
  unnest(augmented)
#> # A tibble: 32 x 11
#>       wt   mpg  qsec  gear .fitted .se.fit  .resid  .hat .sigma .cooksd
#>    <dbl> <dbl> <dbl> <dbl>   <dbl>   <dbl>   <dbl> <dbl>  <dbl>   <dbl>
#>  1  2.62  21    16.5     4    2.73   0.209 -0.107  0.517  0.304 7.44e-2
#>  2  2.88  21    17.0     4    2.75   0.152  0.126  0.273  0.304 2.43e-2
#>  3  2.32  22.8  18.6     4    2.63   0.163 -0.310  0.312  0.279 1.88e-1
#>  4  2.2   32.4  19.5     4    1.70   0.137  0.505  0.223  0.233 2.78e-1
#>  5  1.62  30.4  18.5     4    1.86   0.151 -0.244  0.269  0.292 8.89e-2
#>  6  1.84  33.9  19.9     4    1.56   0.156  0.274  0.286  0.286 1.25e-1
#>  7  1.94  27.3  18.9     4    2.19   0.113 -0.253  0.151  0.293 3.94e-2
#>  8  2.14  26    16.7     5    2.21   0.153 -0.0683 0.277  0.307 7.32e-3
#>  9  1.51  30.4  16.9     5    1.77   0.191 -0.259  0.430  0.284 2.63e-1
#> 10  3.17  15.8  14.5     5    3.15   0.157  0.0193 0.292  0.308 6.44e-4
#> # … with 22 more rows, and 1 more variable: .std.resid <dbl>
…
