tidymodels - K-means clustering with tidy data principles
…
The output is a list of vectors, where each component has a different length. There’s one of length 300, the same as our original data set. There are two elements of length 3 (withinss and tot.withinss) and centers is a matrix with 3 rows. And then there are the elements of length 1: totss, tot.withinss, betweenss, and iter. (The value ifault indicates possible algorithm problems.)

These differing lengths have important meaning when we want to tidy our data set; they signify that each type of component communicates a different kind of information.

cluster (300 values) contains information about each point

centers, withinss, and size (3 values) contain information about each cluster

totss, tot.withinss, betweenss, and iter (1 value) contain information about the full clustering

Which of these do we want to extract? There is no right answer; each of them may be interesting to an analyst. Because they communicate entirely different information (not to mention there’s no straightforward way to combine them), they are extracted by separate functions. augment adds the point classifications to the original data set:

augment(kclust, points)
#> # A tibble: 300 × 3
#>       x1     x2 .cluster
#>    <dbl>  <dbl> <fct>   
#>  1  6.91 -2.74  3       
#>  2  6.14 -2.45  3       
#>  3  4.24 -0.946 3       
#>  4  3.54  0.287 3       
#>  5  3.91  0.408 3       
#>  6  5.30 -1.58  3       
#>  7  5.01 -1.77  3       
#>  8  6.16 -1.68  3       
#>  9  7.13 -2.17  3       
#> 10  5.24 -2.42  3       
#> # ℹ 290 more rows
…
